   $this->f3->route('GET /admin_log', 'page->admin');
        $this->f3->route('POST /sub', function(){
            if(!is_null($_POST['login']) && !is_null($_POST['pwd']) && !is_null($_POST['mail'])){
                $this->sub($_POST['login'], $_POST['pwd'], $_POST['mail']);
            }
        });
		
		
		
		
    public function sub($login ,$pwd, $mail){
        $this->db->exec('INSERT INTO `users` (`id`, `login`, `password`) VALUES (NULL, \'' . $login .'\', \'' . password_hash($pwd, PASSWORD_DEFAULT) . '\')');
        $this->db->exec('INSERT INTO `mails` (`id`, `login`, `mail`) VALUES (NULL, \'' . $login . '\', \'' . $mail .'\');');
    }
	
	
	    public function admin(){
        views::display("admin");
    }